<?xml version="1.0" encoding="UTF-8"?>
<!DOCTYPE svg PUBLIC "-//W3C//DTD SVG 1.1//EN" "http://www.w3.org/Graphics/SVG/1.1/DTD/svg11.dtd">
<!-- Creator: CorelDRAW 2018 (64 Bit) -->
<svg xmlns="http://www.w3.org/2000/svg" xml:space="preserve" width="20px" height="20px" version="1.1" style="shape-rendering:geometricPrecision; text-rendering:geometricPrecision; image-rendering:optimizeQuality; fill-rule:evenodd; clip-rule:evenodd"
viewBox="0 0 0.464 0.464"
 xmlns:xlink="http://www.w3.org/1999/xlink">
 <defs>
  <style type="text/css">
   <![CDATA[
    .fil0 {fill:#76C04E;fill-rule:nonzero}
   ]]>
  </style>
 </defs>
 <g id="Camada_x0020_1">
  <metadata id="CorelCorpID_0Corel-Layer"/>
  <path class="fil0" d="M0.232 0c-0.128,0 -0.232,0.104 -0.232,0.232 0,0.128 0.104,0.232 0.232,0.232 0.062,0 0.121,-0.025 0.165,-0.069 0.007,-0.007 0.006,-0.019 -0.001,-0.027l-0.037 -0.036c0.008,-0.01 0.009,-0.024 0.003,-0.036 -0.009,-0.017 -0.022,-0.031 -0.04,-0.041 -0.006,-0.003 -0.012,-0.005 -0.019,-0.005 -0.002,0 -0.004,0 -0.007,0.001 -0.008,0.001 -0.015,0.005 -0.023,0.011 -0.002,0.002 -0.005,0.003 -0.009,0.003 -0.004,0 -0.009,-0.002 -0.012,-0.004 -0.022,-0.017 -0.041,-0.036 -0.058,-0.059 -0.004,-0.004 -0.006,-0.014 -0.001,-0.02 0.005,-0.008 0.009,-0.016 0.011,-0.024 0.002,-0.008 0.001,-0.017 -0.005,-0.026 -0.01,-0.017 -0.023,-0.03 -0.04,-0.039 -0.006,-0.003 -0.012,-0.004 -0.017,-0.004 -0.01,0 -0.018,0.004 -0.026,0.011 -0.006,0.007 -0.012,0.015 -0.019,0.024 -0.006,0.008 -0.006,0.018 -0.005,0.026l0 0.001c0.001,0.01 0.005,0.023 0.012,0.039 0.013,0.026 0.031,0.05 0.055,0.075 0.005,0.005 0.025,0.025 0.03,0.03 0.025,0.025 0.05,0.043 0.076,0.056 0.015,0.007 0.028,0.011 0.039,0.012l0 0c0.002,0 0.005,0 0.007,0 0.005,0 0.013,-0.001 0.019,-0.005l0.024 0.024c-0.034,0.028 -0.077,0.043 -0.122,0.043 -0.107,0 -0.193,-0.086 -0.193,-0.193 0,-0.107 0.086,-0.193 0.193,-0.193 0.107,0 0.193,0.086 0.193,0.193 0,0.011 0.009,0.019 0.02,0.019 0.01,0 0.019,-0.008 0.019,-0.019 0,-0.128 -0.104,-0.232 -0.232,-0.232z"/>
 </g>
</svg>
