<?xml version="1.0" encoding="UTF-8"?>
<!DOCTYPE svg PUBLIC "-//W3C//DTD SVG 1.1//EN" "http://www.w3.org/Graphics/SVG/1.1/DTD/svg11.dtd">
<!-- Creator: CorelDRAW 2018 (64 Bit) -->
<svg xmlns="http://www.w3.org/2000/svg" xml:space="preserve" width="18px" height="20px" version="1.1" style="shape-rendering:geometricPrecision; text-rendering:geometricPrecision; image-rendering:optimizeQuality; fill-rule:evenodd; clip-rule:evenodd"
viewBox="0 0 0.744 0.847"
 xmlns:xlink="http://www.w3.org/1999/xlink">
 <defs>
  <style type="text/css">
   <![CDATA[
    .fil0 {fill:#76C04E;fill-rule:nonzero}
   ]]>
  </style>
 </defs>
 <g id="Camada_x0020_1">
  <metadata id="CorelCorpID_0Corel-Layer"/>
  <g id="_2702507256560">
   <path class="fil0" d="M0.372 0.099c-0.096,0 -0.174,0.078 -0.174,0.174 0,0.059 0.03,0.114 0.081,0.146 0.051,0.033 0.114,0.036 0.172,0.009 0.013,-0.005 0.018,-0.02 0.012,-0.032 -0.005,-0.013 -0.02,-0.018 -0.033,-0.013 -0.042,0.02 -0.088,0.018 -0.125,-0.006 -0.036,-0.023 -0.057,-0.062 -0.057,-0.104 0,-0.069 0.056,-0.124 0.124,-0.124 0.068,0 0.124,0.055 0.124,0.124 0,0.013 -0.011,0.025 -0.025,0.025 -0.012,0 -0.024,-0.01 -0.025,-0.025 0,0 0,0 0,0 0,-0.041 -0.033,-0.075 -0.074,-0.075 -0.041,0 -0.074,0.034 -0.074,0.075 0,0.041 0.033,0.074 0.074,0.074 0.019,0 0.036,-0.007 0.05,-0.019 0.013,0.012 0.03,0.019 0.049,0.019 0.041,0 0.075,-0.033 0.075,-0.074 0,-0.096 -0.078,-0.174 -0.174,-0.174zm0.024 0.178c-0.001,0.012 -0.012,0.021 -0.024,0.021 -0.014,0 -0.025,-0.012 -0.025,-0.025 0,-0.014 0.011,-0.025 0.025,-0.025 0.013,0 0.023,0.01 0.025,0.022 -0.001,0.002 -0.001,0.005 -0.001,0.007z"/>
   <path class="fil0" d="M0.744 0.326c0,-0.007 -0.003,-0.013 -0.007,-0.018l-0.092 -0.092 0 -0.191c0,-0.014 -0.011,-0.025 -0.025,-0.025l-0.496 0c-0.014,0 -0.025,0.011 -0.025,0.025l0 0.191 -0.092 0.092c0,0 0,0 0,0 -0.005,0.005 -0.007,0.012 -0.007,0.018 0,0 0,0 0,0l0 0.446c0,0.041 0.033,0.075 0.074,0.075l0.596 0c0.041,0 0.074,-0.034 0.074,-0.075l0 -0.446c0,0 0,0 0,0zm-0.099 -0.04l0.039 0.04 -0.039 0.039 0 -0.079zm-0.496 -0.059c0,0 0,0 0,-0.001l0 -0.176 0.446 0 0 0.176c0,0.001 0,0.001 0,0.001l0 0.188 -0.134 0.134 -0.178 0 -0.134 -0.134 0 -0.188zm-0.05 0.059l0 0.079 -0.039 -0.039 0.039 -0.04zm-0.049 0.476l0 -0.376 0.188 0.188 -0.188 0.188zm0.035 0.035l0.198 -0.199 0.178 0 0.198 0.199 -0.574 0zm0.609 -0.035l-0.188 -0.188 0.188 -0.188 0 0.376z"/>
  </g>
 </g>
</svg>
