<?xml version="1.0" encoding="UTF-8"?>
<!DOCTYPE svg PUBLIC "-//W3C//DTD SVG 1.1//EN" "http://www.w3.org/Graphics/SVG/1.1/DTD/svg11.dtd">
<!-- Creator: CorelDRAW 2018 (64 Bit) -->
<svg xmlns="http://www.w3.org/2000/svg" xml:space="preserve" width="275px" height="55px" version="1.1" style="shape-rendering:geometricPrecision; text-rendering:geometricPrecision; image-rendering:optimizeQuality; fill-rule:evenodd; clip-rule:evenodd"
viewBox="0 0 63.267 12.668"
 xmlns:xlink="http://www.w3.org/1999/xlink">
 <defs>
  <style type="text/css">
   <![CDATA[
    .fil1 {fill:#606062}
    .fil2 {fill:#76C04E}
    .fil0 {fill:#606062;fill-rule:nonzero}
    .fil3 {fill:#76C04E;fill-rule:nonzero}
   ]]>
  </style>
 </defs>
 <g id="Camada_x0020_1">
  <metadata id="CorelCorpID_0Corel-Layer"/>
  <g id="_2702811754896">
   <g>
    <path class="fil0" d="M2.011 10.553l0.383 0 -0.15 0.744c-0.091,0.071 -0.197,0.125 -0.318,0.163 -0.12,0.038 -0.245,0.057 -0.374,0.057 -0.181,0 -0.338,-0.033 -0.473,-0.098 -0.134,-0.066 -0.238,-0.158 -0.311,-0.277 -0.073,-0.119 -0.11,-0.255 -0.11,-0.41 0,-0.205 0.048,-0.39 0.142,-0.555 0.095,-0.166 0.229,-0.295 0.401,-0.389 0.172,-0.094 0.37,-0.141 0.594,-0.141 0.172,0 0.321,0.027 0.448,0.08 0.126,0.054 0.228,0.132 0.306,0.235l-0.3 0.243c-0.06,-0.071 -0.128,-0.122 -0.204,-0.154 -0.076,-0.032 -0.165,-0.047 -0.269,-0.047 -0.137,0 -0.259,0.03 -0.364,0.091 -0.105,0.061 -0.186,0.145 -0.244,0.252 -0.057,0.107 -0.086,0.226 -0.086,0.359 0,0.139 0.045,0.25 0.135,0.332 0.091,0.081 0.22,0.122 0.389,0.122 0.107,0 0.207,-0.021 0.3,-0.064l0.105 -0.543zm3.409 -0.314c0,0.168 -0.045,0.313 -0.137,0.433 -0.091,0.121 -0.217,0.206 -0.379,0.256l0.315 0.558 -0.442 0 -0.284 -0.506 -0.356 0 -0.101 0.506 -0.421 0 0.362 -1.808 0.736 0c0.223,0 0.397,0.049 0.521,0.147 0.124,0.098 0.186,0.236 0.186,0.414zm-0.862 0.407c0.139,0 0.247,-0.031 0.324,-0.095 0.076,-0.064 0.115,-0.155 0.115,-0.274 0,-0.086 -0.03,-0.15 -0.088,-0.193 -0.059,-0.043 -0.142,-0.065 -0.251,-0.065l-0.33 0 -0.127 0.627 0.357 0zm2.915 0.871c-0.18,0 -0.337,-0.033 -0.47,-0.098 -0.132,-0.066 -0.234,-0.158 -0.304,-0.277 -0.071,-0.119 -0.106,-0.255 -0.106,-0.41 0,-0.205 0.047,-0.39 0.14,-0.554 0.094,-0.165 0.226,-0.294 0.396,-0.389 0.169,-0.094 0.363,-0.142 0.582,-0.142 0.181,0 0.337,0.033 0.47,0.098 0.132,0.066 0.234,0.158 0.305,0.277 0.07,0.118 0.105,0.255 0.105,0.41 0,0.205 -0.047,0.39 -0.14,0.554 -0.094,0.164 -0.226,0.294 -0.395,0.389 -0.17,0.094 -0.364,0.142 -0.583,0.142zm0.036 -0.357c0.133,0 0.249,-0.032 0.349,-0.095 0.1,-0.064 0.176,-0.149 0.23,-0.256 0.053,-0.107 0.08,-0.225 0.08,-0.354 0,-0.137 -0.043,-0.247 -0.129,-0.329 -0.086,-0.082 -0.208,-0.122 -0.364,-0.122 -0.133,0 -0.249,0.031 -0.349,0.095 -0.1,0.064 -0.176,0.149 -0.23,0.256 -0.053,0.106 -0.08,0.224 -0.08,0.353 0,0.138 0.043,0.248 0.129,0.33 0.086,0.081 0.208,0.122 0.364,0.122zm3.081 0.357c-0.227,0 -0.405,-0.057 -0.534,-0.17 -0.129,-0.112 -0.194,-0.267 -0.194,-0.463 0,-0.057 0.007,-0.121 0.021,-0.194l0.201 -1.012 0.421 0 -0.201 1.005c-0.011,0.056 -0.016,0.107 -0.016,0.152 0,0.108 0.03,0.19 0.089,0.244 0.06,0.054 0.146,0.081 0.26,0.081 0.127,0 0.229,-0.038 0.304,-0.113 0.076,-0.076 0.131,-0.197 0.166,-0.364l0.201 -1.005 0.411 0 -0.204 1.03c-0.111,0.539 -0.419,0.809 -0.925,0.809zm3.298 -1.839c0.225,0 0.4,0.05 0.523,0.149 0.123,0.099 0.184,0.237 0.184,0.414 0,0.152 -0.035,0.284 -0.107,0.396 -0.071,0.113 -0.173,0.2 -0.304,0.26 -0.132,0.06 -0.287,0.09 -0.467,0.09l-0.402 0 -0.098 0.499 -0.421 0 0.361 -1.808 0.731 0zm-0.152 0.968c0.139,0 0.247,-0.031 0.322,-0.095 0.076,-0.064 0.114,-0.155 0.114,-0.274 0,-0.086 -0.029,-0.15 -0.087,-0.193 -0.057,-0.043 -0.14,-0.065 -0.249,-0.065l-0.328 0 -0.126 0.627 0.354 0z"/>
    <path class="fil1" d="M12.984 5.294c-0.01,0.126 -0.016,0.241 -0.016,0.346 0,0.261 0.028,0.467 0.085,0.617 0.124,0.305 0.427,0.464 0.907,0.477 0.037,0 0.19,0 0.458,0 0.268,0 0.791,-0.028 1.57,-0.085l-0.187 1.197c-0.33,0.119 -0.654,0.195 -0.972,0.229 -0.318,0.035 -0.615,0.052 -0.893,0.052 -0.277,0 -0.478,0 -0.603,0 -0.424,-0.006 -0.778,-0.103 -1.061,-0.29 -0.284,-0.187 -0.488,-0.446 -0.613,-0.776 -0.155,-0.412 -0.233,-0.851 -0.233,-1.319 0,-0.148 0.004,-0.297 0.012,-0.448l1.546 0z"/>
    <path class="fil1" d="M12.407 1.97c0.225,-0.284 0.502,-0.491 0.833,-0.622 0.33,-0.131 0.748,-0.196 1.252,-0.196 0.505,0 0.921,0.025 1.249,0.074 0.327,0.05 0.681,0.144 1.061,0.281l-0.196 1.197c-0.854,-0.106 -1.503,-0.159 -1.945,-0.159 -0.007,0 -0.014,0 -0.024,0 -0.009,0 -0.043,0 -0.102,0 -0.06,0 -0.114,0.001 -0.164,0.004 -0.05,0.004 -0.119,0.011 -0.206,0.024 -0.087,0.012 -0.154,0.03 -0.201,0.051 -0.047,0.022 -0.106,0.058 -0.177,0.108 -0.072,0.05 -0.13,0.109 -0.173,0.178 -0.044,0.068 -0.096,0.155 -0.155,0.261 -0.059,0.106 -0.107,0.228 -0.145,0.365 -0.046,0.159 -0.089,0.324 -0.127,0.495l-1.591 0c0.073,-0.384 0.165,-0.735 0.274,-1.051 0.134,-0.39 0.313,-0.727 0.537,-1.01z"/>
    <path class="fil1" d="M1.346 1.47c0.175,-0.094 0.348,-0.158 0.519,-0.192 0.172,-0.034 0.314,-0.052 0.426,-0.052 0.112,0 0.174,0 0.187,0 1.377,0.025 2.334,0.075 2.87,0.15l-0.205 1.281 -2.469 0c-0.305,0 -0.486,0.122 -0.542,0.365 -0.006,0.037 -0.016,0.09 -0.028,0.159l-0.112 0.748 2.487 0.102 -0.206 1.263 -2.515 0.084 -0.131 0.804c-0.037,0.237 0.006,0.38 0.131,0.43 0.093,0.037 0.218,0.056 0.374,0.056l2.384 0 -0.206 1.272c-0.442,0.056 -1.206,0.103 -2.29,0.14l-0.543 0.019c-0.031,0 -0.082,0 -0.154,0 -0.072,0 -0.17,-0.01 -0.294,-0.028 -0.125,-0.019 -0.262,-0.063 -0.412,-0.131 -0.411,-0.193 -0.617,-0.543 -0.617,-1.047 0,-0.1 0.006,-0.206 0.019,-0.318l0.626 -3.927c0.094,-0.593 0.327,-0.985 0.701,-1.178z"/>
    <polygon class="fil2" points="5.653,4.375 13.131,4.375 13.039,4.95 5.562,4.95 "/>
    <path class="fil0" d="M8.992 1.235c0.374,0 0.693,0.069 0.957,0.206 0.265,0.137 0.469,0.317 0.612,0.541 0.255,0.418 0.383,0.984 0.383,1.7 0,0.349 -0.034,0.753 -0.103,1.214 -0.236,1.55 -0.716,2.515 -1.438,2.895 -0.361,0.186 -0.818,0.28 -1.372,0.28l-2.97 0 0.44 -2.777 1.527 0 -0.23 1.451 1.195 0c0.361,0 0.645,-0.171 0.85,-0.514 0.205,-0.342 0.364,-0.862 0.476,-1.559 0.069,-0.511 0.103,-0.889 0.103,-1.135 0,-0.246 -0.036,-0.442 -0.107,-0.588 -0.072,-0.146 -0.165,-0.248 -0.281,-0.304 -0.115,-0.056 -0.263,-0.084 -0.443,-0.084l-1.13 0 -0.233 1.47 -1.527 0 0.443 -2.796c0,0 0.95,0 2.848,0z"/>
   </g>
   <path class="fil3" d="M32.085 1.228l-0.885 4.423 -0.84 0 -1.65 -2.768 -0.556 2.768 -1.011 0 0.885 -4.423 0.847 0 1.649 2.774 0.55 -2.774 1.011 0zm3.353 4.499c-0.443,0 -0.826,-0.08 -1.15,-0.24 -0.325,-0.16 -0.573,-0.385 -0.746,-0.676 -0.173,-0.291 -0.259,-0.626 -0.259,-1.005 0,-0.501 0.115,-0.953 0.344,-1.356 0.23,-0.402 0.552,-0.719 0.967,-0.951 0.415,-0.231 0.89,-0.347 1.425,-0.347 0.443,0 0.826,0.08 1.15,0.24 0.325,0.16 0.573,0.385 0.746,0.676 0.173,0.291 0.259,0.626 0.259,1.005 0,0.501 -0.115,0.953 -0.344,1.356 -0.23,0.402 -0.552,0.719 -0.967,0.951 -0.415,0.231 -0.89,0.347 -1.425,0.347zm0.088 -0.872c0.325,0 0.609,-0.078 0.853,-0.234 0.245,-0.156 0.432,-0.364 0.563,-0.625 0.13,-0.262 0.196,-0.55 0.196,-0.866 0,-0.337 -0.106,-0.606 -0.316,-0.806 -0.211,-0.2 -0.508,-0.3 -0.891,-0.3 -0.325,0 -0.609,0.078 -0.853,0.234 -0.245,0.156 -0.432,0.364 -0.563,0.625 -0.131,0.262 -0.196,0.55 -0.196,0.866 0,0.337 0.105,0.606 0.316,0.806 0.211,0.2 0.508,0.3 0.891,0.3zm8.263 -2.256c0,0.413 -0.111,0.767 -0.335,1.062 -0.223,0.295 -0.533,0.503 -0.929,0.625l0.771 1.365 -1.08 0 -0.695 -1.238 -0.873 0 -0.246 1.238 -1.03 0 0.885 -4.423 1.801 0c0.547,0 0.973,0.12 1.276,0.36 0.304,0.24 0.455,0.577 0.455,1.011zm-2.11 0.998c0.341,0 0.605,-0.077 0.793,-0.233 0.187,-0.156 0.281,-0.38 0.281,-0.67 0,-0.211 -0.072,-0.369 -0.215,-0.474 -0.143,-0.106 -0.348,-0.158 -0.613,-0.158l-0.809 0 -0.31 1.535 0.873 0zm4.799 -1.535l-1.415 0 0.17 -0.834 3.856 0 -0.171 0.834 -1.409 0 -0.721 3.589 -1.024 0 0.714 -3.589zm8.112 -0.834l-0.885 4.423 -1.024 0 0.361 -1.801 -2.004 0 -0.36 1.801 -1.03 0 0.885 -4.423 1.03 0 -0.348 1.737 2.004 0 0.347 -1.737 1.024 0zm-24.3 9.265l-2.06 0 -0.575 0.948 -1.093 0 2.862 -4.424 1.012 0 1.087 4.424 -1.024 0 -0.209 -0.948zm-0.17 -0.778l-0.373 -1.706 -1.043 1.706 1.416 0zm8.623 -2.698l-0.879 4.424 -0.96 0 0.518 -2.629 -1.687 2.161 -0.455 0 -0.91 -2.186 -0.531 2.654 -0.961 0 0.885 -4.424 0.834 0 1.106 2.755 2.161 -2.755 0.879 0zm2.803 0.821l-0.19 0.961 2.054 0 -0.158 0.796 -2.06 0 -0.202 1.024 2.414 0 -0.171 0.822 -3.425 0 0.885 -4.424 3.343 0 -0.171 0.821 -2.319 0zm7.814 0.55c0,0.413 -0.111,0.767 -0.335,1.062 -0.223,0.295 -0.533,0.504 -0.929,0.626l0.771 1.365 -1.08 0 -0.695 -1.239 -0.873 0 -0.246 1.239 -1.03 0 0.885 -4.424 1.801 0c0.547,0 0.973,0.12 1.276,0.36 0.304,0.24 0.455,0.577 0.455,1.011zm-2.11 0.999c0.341,0 0.605,-0.078 0.793,-0.234 0.187,-0.156 0.281,-0.379 0.281,-0.67 0,-0.211 -0.072,-0.369 -0.215,-0.474 -0.143,-0.105 -0.348,-0.158 -0.613,-0.158l-0.809 0 -0.31 1.536 0.873 0zm4.117 -2.37l1.03 0 -0.885 4.424 -1.03 0 0.885 -4.424zm4.408 4.5c-0.442,0 -0.829,-0.08 -1.16,-0.241 -0.33,-0.16 -0.584,-0.385 -0.761,-0.676 -0.177,-0.291 -0.266,-0.625 -0.266,-1.005 0,-0.501 0.115,-0.953 0.345,-1.355 0.229,-0.403 0.553,-0.72 0.97,-0.951 0.417,-0.232 0.895,-0.348 1.434,-0.348 0.396,0 0.746,0.067 1.05,0.202 0.303,0.135 0.532,0.329 0.688,0.582l-0.739 0.606c-0.236,-0.345 -0.592,-0.518 -1.068,-0.518 -0.325,0 -0.611,0.076 -0.86,0.228 -0.248,0.151 -0.441,0.358 -0.578,0.619 -0.137,0.261 -0.205,0.552 -0.205,0.872 0,0.341 0.108,0.612 0.325,0.812 0.217,0.2 0.522,0.3 0.913,0.3 0.468,0 0.86,-0.17 1.176,-0.511l0.607 0.619c-0.439,0.51 -1.062,0.765 -1.871,0.765zm6.26 -1.024l-2.06 0 -0.576 0.948 -1.093 0 2.863 -4.424 1.011 0 1.087 4.424 -1.024 0 -0.208 -0.948zm-0.171 -0.778l-0.373 -1.706 -1.043 1.706 1.416 0z"/>
   <polygon class="fil2" points="21.587,0 21.777,0 21.777,12.668 21.587,12.668 "/>
  </g>
 </g>
</svg>
