<?xml version="1.0" encoding="UTF-8"?>
<!DOCTYPE svg PUBLIC "-//W3C//DTD SVG 1.1//EN" "http://www.w3.org/Graphics/SVG/1.1/DTD/svg11.dtd">
<!-- Creator: CorelDRAW 2018 (64 Bit) -->
<svg xmlns="http://www.w3.org/2000/svg" xml:space="preserve" width="117px" height="100px" version="1.1" style="shape-rendering:geometricPrecision; text-rendering:geometricPrecision; image-rendering:optimizeQuality; fill-rule:evenodd; clip-rule:evenodd"
viewBox="0 0 16.177 13.873"
 xmlns:xlink="http://www.w3.org/1999/xlink">
 <defs>
  <style type="text/css">
   <![CDATA[
    .fil1 {fill:#76C04E;fill-rule:nonzero}
    .fil0 {fill:#39C1CF;fill-rule:nonzero}
    .fil2 {fill:#3A96C9;fill-rule:nonzero}
   ]]>
  </style>
 </defs>
 <g id="Camada_x0020_1">
  <metadata id="CorelCorpID_0Corel-Layer"/>
  <g id="_2702612295104">
   <path class="fil0" d="M9.56 10.673c-0.094,0 -0.169,-0.076 -0.169,-0.169l0 -1.964c0,-0.094 0.075,-0.169 0.169,-0.169 0.093,0 0.168,0.075 0.168,0.169l0 1.964c0,0.093 -0.075,0.169 -0.168,0.169z"/>
   <path class="fil1" d="M13.877 11.778l-11.577 0c-0.093,0 -0.169,-0.076 -0.169,-0.169l0 -6.903c0,-0.093 0.076,-0.169 0.169,-0.169l3.243 0c0.093,0 0.169,0.076 0.169,0.169 0,0.094 -0.076,0.169 -0.169,0.169l-3.074 0 0 6.565 11.239 0 0 -6.565 -3.073 0c-0.093,0 -0.169,-0.075 -0.169,-0.169 0,-0.093 0.076,-0.169 0.169,-0.169l3.242 0c0.094,0 0.169,0.076 0.169,0.169l0 6.903c0,0.093 -0.075,0.169 -0.169,0.169z"/>
   <path class="fil0" d="M3.676 10.293c-0.093,0 -0.169,-0.075 -0.169,-0.168l0 -4.476c0,-0.093 0.076,-0.169 0.169,-0.169 0.093,0 0.169,0.076 0.169,0.169l0 4.476c0,0.093 -0.076,0.168 -0.169,0.168z"/>
   <path class="fil0" d="M5.147 10.673c-0.093,0 -0.169,-0.076 -0.169,-0.169l0 -4.855c0,-0.093 0.076,-0.169 0.169,-0.169 0.093,0 0.169,0.076 0.169,0.169l0 4.855c0,0.093 -0.076,0.169 -0.169,0.169z"/>
   <path class="fil0" d="M6.618 10.673c-0.093,0 -0.169,-0.076 -0.169,-0.169l-0.004 -1.985c0,-0.093 0.076,-0.169 0.169,-0.169l0 0c0.093,0 0.169,0.075 0.169,0.168l0.004 1.986c0,0.093 -0.076,0.169 -0.169,0.169 0,0 0,0 0,0z"/>
   <path class="fil0" d="M6.618 7.95c-0.093,0 -0.169,-0.076 -0.169,-0.169l0 -2.132c0,-0.093 0.076,-0.169 0.169,-0.169 0.093,0 0.169,0.076 0.169,0.169l0 2.132c0,0.093 -0.076,0.169 -0.169,0.169z"/>
   <path class="fil0" d="M8.089 10.673c-0.093,0 -0.169,-0.076 -0.169,-0.169l0 -3.675c0,-0.093 0.076,-0.169 0.169,-0.169 0.093,0 0.169,0.076 0.169,0.169l0 3.675c0,0.093 -0.076,0.169 -0.169,0.169z"/>
   <path class="fil0" d="M9.56 7.95c-0.094,0 -0.169,-0.076 -0.169,-0.169l0 -2.132c0,-0.093 0.075,-0.169 0.169,-0.169 0.093,0 0.168,0.076 0.168,0.169l0 2.132c0,0.093 -0.075,0.169 -0.168,0.169z"/>
   <path class="fil0" d="M11.031 10.673c-0.094,0 -0.169,-0.076 -0.169,-0.169l0 -4.855c0,-0.093 0.075,-0.169 0.169,-0.169 0.093,0 0.168,0.076 0.168,0.169l0 4.855c0,0.093 -0.075,0.169 -0.168,0.169z"/>
   <path class="fil0" d="M12.501 10.673c-0.093,0 -0.168,-0.076 -0.168,-0.169l0 -4.476c0,-0.093 0.075,-0.169 0.168,-0.169 0.094,0 0.169,0.076 0.169,0.169l0 4.476c0,0.093 -0.075,0.169 -0.169,0.169z"/>
   <path class="fil1" d="M8.768 6.226c-0.093,0 -0.169,-0.075 -0.169,-0.169l0 -4.321c0,-0.093 0.076,-0.169 0.169,-0.169l0.477 0 -1.162 -1.161 -1.161 1.161 0.477 0c0.093,0 0.169,0.076 0.169,0.169l0 4.321c0,0.094 -0.076,0.169 -0.169,0.169 -0.094,0 -0.169,-0.075 -0.169,-0.169l0 -4.152 -0.716 0c-0.068,0 -0.13,-0.041 -0.156,-0.104 -0.026,-0.063 -0.011,-0.136 0.037,-0.184l1.569 -1.569c0.063,-0.064 0.175,-0.064 0.239,0l1.569 1.569c0.048,0.048 0.063,0.121 0.036,0.184 -0.026,0.063 -0.087,0.104 -0.156,0.104l-0.715 0 0 4.152c0,0.093 -0.076,0.169 -0.169,0.169z"/>
   <path class="fil1" d="M10.635 4.875c-0.093,0 -0.169,-0.075 -0.169,-0.169l0 -1.444c0,-0.093 0.076,-0.169 0.169,-0.169l0.135 0 -0.555 -0.556 -0.556 0.556 0.135 0c0.093,0 0.169,0.076 0.169,0.169l0 1.444c0,0.094 -0.076,0.169 -0.169,0.169 -0.093,0 -0.169,-0.075 -0.169,-0.169l0 -1.275 -0.374 0c-0.068,0 -0.13,-0.041 -0.156,-0.104 -0.026,-0.064 -0.012,-0.136 0.037,-0.184l0.963 -0.964c0.066,-0.066 0.173,-0.066 0.239,0l0.964 0.964c0.048,0.048 0.062,0.121 0.036,0.184 -0.026,0.063 -0.088,0.104 -0.156,0.104l-0.374 0 0 1.275c0,0.094 -0.076,0.169 -0.169,0.169z"/>
   <path class="fil1" d="M6.383 4.875c-0.093,0 -0.169,-0.075 -0.169,-0.169l0 -1.444c0,-0.093 0.076,-0.169 0.169,-0.169l0.136 0 -0.556 -0.556 -0.556 0.556 0.136 0c0.093,0 0.169,0.076 0.169,0.169l0 1.444c0,0.094 -0.076,0.169 -0.169,0.169 -0.094,0 -0.169,-0.075 -0.169,-0.169l0 -1.275 -0.374 0c-0.069,0 -0.13,-0.041 -0.156,-0.104 -0.027,-0.064 -0.012,-0.136 0.036,-0.185l0.964 -0.963c0.066,-0.066 0.172,-0.066 0.238,0l0.964 0.963c0.048,0.049 0.063,0.121 0.036,0.184 -0.026,0.064 -0.087,0.105 -0.156,0.105l-0.374 0 0 1.275c0,0.094 -0.075,0.169 -0.169,0.169z"/>
   <path class="fil1" d="M9.848 8.083c-0.048,0 -0.095,-0.02 -0.128,-0.059 -0.061,-0.071 -0.052,-0.178 0.018,-0.239l2.366 -2.018c0.07,-0.061 0.177,-0.052 0.238,0.018 0.06,0.071 0.052,0.178 -0.019,0.238l-2.365 2.019c-0.032,0.028 -0.071,0.041 -0.11,0.041z"/>
   <path class="fil1" d="M9.18 8.329l-2.183 0c-0.093,0 -0.169,-0.076 -0.169,-0.169 0,-0.093 0.076,-0.169 0.169,-0.169l2.183 0c0.094,0 0.169,0.076 0.169,0.169 0,0.093 -0.075,0.169 -0.169,0.169z"/>
   <path class="fil1" d="M3.973 10.436c-0.05,0 -0.099,-0.021 -0.132,-0.063 -0.059,-0.073 -0.047,-0.179 0.026,-0.237l2.349 -1.871c0.073,-0.059 0.179,-0.047 0.237,0.026 0.058,0.073 0.046,0.179 -0.026,0.237l-2.349 1.872c-0.031,0.024 -0.068,0.036 -0.105,0.036z"/>
   <path class="fil2" d="M11.795 3.967l2.688 0c0.107,0 0.194,0.087 0.194,0.194l0 7.448c0,0.093 0.076,0.169 0.169,0.169 0.093,0 0.169,-0.076 0.169,-0.169l0 -7.448c0,-0.293 -0.239,-0.532 -0.532,-0.532l-2.688 0c-0.093,0 -0.169,0.076 -0.169,0.169 0,0.093 0.076,0.169 0.169,0.169z"/>
   <path class="fil2" d="M1.331 11.778c0.094,0 0.169,-0.076 0.169,-0.169l0 -7.448c0,-0.107 0.087,-0.194 0.195,-0.194l2.687 0c0.094,0 0.169,-0.076 0.169,-0.169 0,-0.093 -0.075,-0.169 -0.169,-0.169l-2.687 0c-0.294,0 -0.532,0.239 -0.532,0.532l0 7.448c0,0.093 0.075,0.169 0.168,0.169z"/>
   <path class="fil2" d="M15.415 12.348l-14.653 0c-0.42,0 -0.762,0.342 -0.762,0.763 0,0.42 0.342,0.762 0.762,0.762l14.653 0c0.421,0 0.762,-0.342 0.762,-0.762 0,-0.421 -0.341,-0.763 -0.762,-0.763zm0 1.187l-14.653 0c-0.234,0 -0.424,-0.19 -0.424,-0.424 0,-0.235 0.19,-0.425 0.424,-0.425l14.653 0c0.234,0 0.425,0.19 0.425,0.425 0,0.234 -0.191,0.424 -0.425,0.424z"/>
   <path class="fil1" d="M3.128 10.504c0,0.302 0.246,0.548 0.548,0.548 0.302,0 0.548,-0.246 0.548,-0.548 0,-0.302 -0.246,-0.548 -0.548,-0.548 -0.302,0 -0.548,0.246 -0.548,0.548zm0.758 0c0,0.116 -0.094,0.21 -0.21,0.21 -0.116,0 -0.21,-0.094 -0.21,-0.21 0,-0.116 0.094,-0.211 0.21,-0.211 0.116,0 0.21,0.095 0.21,0.211z"/>
   <path class="fil1" d="M6.618 8.708c0.297,0 0.548,-0.251 0.548,-0.548 0,-0.302 -0.246,-0.548 -0.548,-0.548 -0.302,0 -0.548,0.246 -0.548,0.548 0,0.302 0.246,0.548 0.548,0.548zm0 -0.758c0.116,0 0.21,0.094 0.21,0.21 0,0.112 -0.098,0.211 -0.21,0.211 -0.116,0 -0.211,-0.095 -0.211,-0.211 0,-0.116 0.095,-0.21 0.211,-0.21z"/>
   <path class="fil1" d="M9.56 8.708c0.302,0 0.548,-0.246 0.548,-0.548 0,-0.302 -0.246,-0.548 -0.548,-0.548 -0.303,0 -0.549,0.246 -0.549,0.548 0,0.302 0.246,0.548 0.549,0.548zm0 -0.758c0.116,0 0.21,0.094 0.21,0.21 0,0.116 -0.094,0.211 -0.21,0.211 -0.117,0 -0.211,-0.095 -0.211,-0.211 0,-0.116 0.095,-0.21 0.211,-0.21z"/>
   <path class="fil1" d="M11.953 5.649c0,0.302 0.246,0.548 0.548,0.548 0.303,0 0.549,-0.246 0.549,-0.548 0,-0.302 -0.246,-0.548 -0.549,-0.548 -0.302,0 -0.548,0.246 -0.548,0.548zm0.759 0c0,0.116 -0.094,0.21 -0.211,0.21 -0.116,0 -0.21,-0.094 -0.21,-0.21 0,-0.116 0.094,-0.211 0.21,-0.211 0.117,0 0.211,0.095 0.211,0.211z"/>
  </g>
 </g>
</svg>
